…
``` r
# Missing UniprotId (for protein "NT-proBNP") is read in as the character "NA" and not as missing value NA 
NPX.0.0 %>% filter(UniProt=="NA")
```

    ## # A tibble: 36 × 13
    ##    SampleID  Index OlinkID UniProt Assay MissingFreq Panel Panel_Version PlateID
    ##    <chr>     <int> <chr>   <chr>   <chr> <chr>       <chr> <chr>         <chr>  
    ##  1 High_1        1 OID001… NA      NT-p… 0           Olin… v.6113        202010…
    ##  2 High_5        2 OID001… NA      NT-p… 0           Olin… v.6113        202010…
    ##  3 CONTROL_…     3 OID001… NA      NT-p… 0           Olin… v.6113        202010…
    ##  4 Low_1         4 OID001… NA      NT-p… 0           Olin… v.6113        202010…
    ##  5 Low_5         5 OID001… NA      NT-p… 0           Olin… v.6113        202010…
    ##  6 CONTROL_…     6 OID001… NA      NT-p… 0           Olin… v.6113        202010…
    ##  7 High_2        7 OID001… NA      NT-p… 0           Olin… v.6113        202010…
    ##  8 High_6        8 OID001… NA      NT-p… 0           Olin… v.6113        202010…
    ##  9 Low_2         9 OID001… NA      NT-p… 0           Olin… v.6113        202010…
    ## 10 Low_6        10 OID001… NA      NT-p… 0           Olin… v.6113        202010…
    ## # … with 26 more rows, and 4 more variables: QC_Warning <chr>, LOD <dbl>,
    ## #   NPX <dbl>, Normalization <chr>
…
