…
    ## Converting dataset Camera_pea_abundances_eq_med_norm_neored...

    ## Mapping identifiers...

    ## Performing gene set analysis using Camera

    ## Creating REACTOME visualization

    ## Retrieving result...

``` r
ab_list[["dat_abundances"]][[1]]
```

    ## # A tibble: 745 × 17
    ##    UniprotID High_1 High_2 High_3 High_4 High_5 High_6 High_7 High_8 Low_1 Low_2
    ##    <chr>     <chr>  <chr>  <chr>  <chr>  <chr>  <chr>  <chr>  <chr>  <chr> <chr>
    ##  1 P04114    0.046… -0.01… 0.217… 0.801… -0.15… 0.436… -0.03… -0.50… -0.5… 0.00…
    ##  2 P01024    0.478… -0.25… -0.01… -0.21… 0.171… -0.32… 0.009… 0.066… -0.2… -2.4…
    ##  3 P21333    -1.26… -0.46… 0.177… -0.04… -0.59… 1.119… 0.237… 0.162… -1.3… -1.9…
    ##  4 Q9Y490    -0.81… -0.00… 0.240… 0.500… -0.39… 2.077… 0.576… 0.733… -0.9… -0.7…
    ##  5 P02751    -0.31… -0.21… 0.507… -0.39… -0.14… -0.65… 0.222… 1.003… 0.44… -2.1…
    ##  6 P01031    0.410… -0.07… 0.024… -0.14… 0.149… -0.23… -0.06… 0.037… -0.3… -1.4…
    ##  7 P35579    -1.27… 0.268… 0.680… 0.532… -0.62… 0.698… -0.14… -0.27… -0.9… 0.72…
    ##  8 Q9Y6R7    -0.29… -0.60… -0.55… -0.17… 0.532… 0.198… 0.640… 0.355… -0.0… -0.9…
    ##  9 P18206    -0.93… 0.158… 0.139… 0.373… -0.73… 1.453… 0.167… 0.236… -0.9… -0.7…
    ## 10 P22105    -0.15… -0.20… -0.20… -0.31… -0.00… -0.25… 0.513… 0.489… 0.29… -2.3…
    ## # … with 735 more rows, and 6 more variables: Low_3 <chr>, Low_4 <chr>,
    ## #   Low_5 <chr>, Low_6 <chr>, Low_7 <chr>, Low_8 <chr>
