…
pea_back_entrez <- res_entrez$entrez

pea_back_entrez[is.na(as.character(pea_back_entrez))]
```

    ## integer(0)

``` r
#######Get hub genes of module of interest and convert to Entrez 
wgcna_module.0.0 %>% 
  dplyr::select(Gene.symbol,kMEblack)
```

    ## # A tibble: 23 × 2
    ##    Gene.symbol   kMEblack
    ##    <chr>            <dbl>
    ##  1 THOP1            0.928
    ##  2 FKBP4            0.912
    ##  3 BLM_hydrolase    0.879
    ##  4 HDGF             0.845
    ##  5 CD163            0.839
    ##  6 GP1BA            0.833
    ##  7 CTSD             0.826
    ##  8 ICAM-2           0.801
    ##  9 BAG6             0.784
    ## 10 SEMA7A           0.780
    ## # … with 13 more rows
…
# Get module membership
kME <- pea_all.0.0 %>% 
  pluck("kMEblack")

# Assigne names
names(kME) <- myProts


pea_all.0.0 %>% 
  dplyr::select(Gene.symbol,entrez,kMEblack)
```

    ## # A tibble: 332 × 3
    ##    Gene.symbol entrez kMEblack
    ##    <chr>        <int>    <dbl>
    ##  1 CA1            759   0.511 
    ##  2 ICAM1         3383   0.616 
    ##  3 CHL1         10752  -0.303 
    ##  4 TGFBI         7045   0.275 
    ##  5 ENG           2022  -0.109 
    ##  6 SERPINA7      6906   0.637 
    ##  7 IGFBP3        3486  -0.140 
    ##  8 CR2           1380  -0.0971
    ##  9 SERPINA5      5104  -0.0108
    ## 10 FCGR3B        2215   0.198 
    ## # … with 322 more rows

``` r
wgcna_module.0.0
```

    ## # A tibble: 23 × 19
    ##    Gene.symbol   High_1  High_2 High_3  High_4  High_5  High_6 High_7  High_8
    ##    <chr>          <dbl>   <dbl>  <dbl>   <dbl>   <dbl>   <dbl>  <dbl>   <dbl>
    ##  1 THOP1          1.40  0.793   -0.658 -0.0796  0.182   0.330   1.06   0.345 
    ##  2 FKBP4          2.44  2.50    -1.23   0.704   1.13    1.58    1.18   0.191 
    ##  3 BLM_hydrolase  0.633 0.553   -0.311 -0.265   0.279   0.280   0.712  0.453 
    ##  4 HDGF           2.14  0.969   -1.14   0.832   0.136   1.16   -0.104  0.104 
    ##  5 CD163          0.902 0.922   -0.100 -0.257   0.309   0.249   1.08   0.438 
    ##  6 GP1BA          0.125 0.103   -0.568  0.0115 -0.0913  0.285   0.129 -0.0115
    ##  7 CTSD           1.31  1.21    -0.245 -0.408   0.679  -0.0346  0.347  0.375 
    ##  8 ICAM-2         0.285 0.00176 -0.269 -0.286   0.0702  0.250   0.422  0.115 
    ##  9 BAG6           0.995 0.746   -0.257  0.170   0.509   0.0401  0.568  0.481 
    ## 10 SEMA7A         0.558 0.110   -0.640 -0.516  -0.110   0.722   0.203  0.147 
    ## # … with 13 more rows, and 10 more variables: Low_1 <dbl>, Low_2 <dbl>,
    ## #   Low_3 <dbl>, Low_4 <dbl>, Low_5 <dbl>, Low_6 <dbl>, Low_7 <dbl>,
    ## #   Low_8 <dbl>, moduleColors <chr>, kMEblack <dbl>
…
