…
``` r
# Get uniprotIDs of second pathway
protsOfPathW <- res_S4$Submitted.entities.found[2] %>% 
  str_replace_all(";", ",") %>% 
  str_split(",") %>% 
  unlist
# Get FC
dat.ms.fc.unip %>% 
  filter(UniprotID %in% protsOfPathW)
```

    ## # A tibble: 64 × 4
    ## # Groups:   UniprotID [64]
    ##    UniprotID    High     Low Foldchange
    ##    <chr>       <dbl>   <dbl>      <dbl>
    ##  1 O00391     1.59   -0.789        2.38
    ##  2 O75083     1.36   -4.92         6.28
    ##  3 O94919    -1.24    0.0535      -1.29
    ##  4 P00441     0.488  -1.93         2.42
    ##  5 P00451     2.38   NA           NA   
    ##  6 P00488    -0.0595 -2.20         2.14
    ##  7 P00746    -3.37   -1.14        -2.24
    ##  8 P00747     0.391  -2.66         3.05
    ##  9 P01009     2.33   -3.97         6.29
    ## 10 P01011     2.90   -1.60         4.49
    ## # … with 54 more rows
…
``` r
# pw2
protsOfPathW <- res_S4$Gene.symbols[2] %>% 
  str_replace_all(";", ",") %>% 
  str_split(",") %>% 
  unlist
# Get FC
dat.ms.fc %>% 
  filter(Gene.symbol %in% protsOfPathW)
```

    ## # A tibble: 64 × 4
    ## # Groups:   Gene.symbol [64]
    ##    Gene.symbol   High    Low Foldchange
    ##    <chr>        <dbl>  <dbl>      <dbl>
    ##  1 A1BG         0.560 -2.41       2.97 
    ##  2 A2M          1.62  -0.479      2.10 
    ##  3 ACTN1        0.531 NA         NA    
    ##  4 AHSG         1.05  -3.77       4.82 
    ##  5 ALB          2.24  -0.544      2.78 
    ##  6 ALDOA        0.715 -0.462      1.18 
    ##  7 APOA1        1.04  -4.58       5.62 
    ##  8 APOH        -0.579 -1.27       0.688
    ##  9 CAP1         1.75  -5.83       7.58 
    ## 10 CD109       -1.81  -0.819     -0.988
    ## # … with 54 more rows

``` r
#pw3
protsOfPathW <- res_S4$Gene.symbols[3] %>% 
  str_replace_all(";", ",") %>% 
  str_split(",") %>% 
  unlist
# Get FC
dat.ms.fc %>% 
  filter(Gene.symbol %in% protsOfPathW)
```

    ## # A tibble: 64 × 4
    ## # Groups:   Gene.symbol [64]
    ##    Gene.symbol   High    Low Foldchange
    ##    <chr>        <dbl>  <dbl>      <dbl>
    ##  1 A1BG         0.560 -2.41       2.97 
    ##  2 A2M          1.62  -0.479      2.10 
    ##  3 ACTN1        0.531 NA         NA    
    ##  4 AHSG         1.05  -3.77       4.82 
    ##  5 ALB          2.24  -0.544      2.78 
    ##  6 ALDOA        0.715 -0.462      1.18 
    ##  7 APOA1        1.04  -4.58       5.62 
    ##  8 APOH        -0.579 -1.27       0.688
    ##  9 CAP1         1.75  -5.83       7.58 
    ## 10 CD109       -1.81  -0.819     -0.988
    ## # … with 54 more rows
…
pw_per_prot.0.2 <- bind_cols(pw_per_prot.0.1,pw_no_digits) %>% 
  select(-PW)
```

    ## New names:
    ## * NA -> ...3

``` r
names(pw_per_prot.0.2) <- c("UniprotID","PW")

pw_per_prot.0.2
```

    ## # A tibble: 322 × 2
    ##    UniprotID PW                           
    ##    <chr>     <chr>                        
    ##  1 P04114    Plasma lipoprotein remodeling
    ##  2 P55058    Plasma lipoprotein remodeling
    ##  3 P04180    Plasma lipoprotein remodeling
    ##  4 P02649    Plasma lipoprotein remodeling
    ##  5 P06727    Plasma lipoprotein remodeling
    ##  6 P08519    Plasma lipoprotein remodeling
    ##  7 P02647    Plasma lipoprotein remodeling
    ##  8 P02768    Plasma lipoprotein remodeling
    ##  9 P02656    Plasma lipoprotein remodeling
    ## 10 P02655    Plasma lipoprotein remodeling
    ## # … with 312 more rows
…
prots_ranked_by_pw_occ <- prot_list %>% 
  unlist() %>% 
  table() %>% 
  as_tibble() %>% 
  arrange(desc(n))

names(prots_ranked_by_pw_occ) <- c("UniprotID","numbPW")

prots_ranked_by_pw_occ
```

    ## # A tibble: 110 × 2
    ##    UniprotID numbPW
    ##    <chr>      <int>
    ##  1 P02671        12
    ##  2 P02675        12
    ##  3 P02679        12
    ##  4 P02751        12
    ##  5 P04275        12
    ##  6 P05106        12
    ##  7 P08514        12
    ##  8 Q9Y490        12
    ##  9 P61224        10
    ## 10 P18206         9
    ## # … with 100 more rows
…
