…
``` r
cyts_in_ms.gs %>% nrow()+cyts_not_in_ms.gs %>% length()
```

    ## [1] 490

``` r
mass_spec.for.rankplot %>% 
filter(UniprotID %in% annoDb.cytokine.chemokine$UniprotID,) %>% # Filter ms data to only include cytokines and chemokines (Using uniportid as key)
inner_join(mass_spec.0.3.5,by=c("UniprotID"="UniprotID")) %>% # replace uniprotID with Gene symbol
dplyr::select(Gene.symbol,sum_norm_ab,rank,Numb_NA_High,Numb_NA_Low) %>% #also keep NA counts 
distinct()
```

    ## # A tibble: 38 × 5
    ##    Gene.symbol sum_norm_ab  rank Numb_NA_High Numb_NA_Low
    ##    <chr>             <dbl> <int>        <int>       <int>
    ##  1 C5              223635.    13            0           0
    ##  2 PPBP             31815.    72            0           0
    ##  3 GPLD1            26815.    81            0           0
    ##  4 CD44             13389.   150            0           0
    ##  5 ADIPOQ           12606.   163            0           0
    ##  6 PSMB7             9926.   183            0           0
    ##  7 EEF2              6762    225            0           0
    ##  8 FAM3C             6447.   232            0           0
    ##  9 KIT               4334.   288            0           0
    ## 10 FLT4              3717    308            0           0
    ## # … with 28 more rows
…
